DataAgregation
…
DataAgregation

Hendrilalaina

2025-03-17

library(tidyr)
library(dplyr)

1 Data Preparation

data("population")
population

## # A tibble: 4,060 × 3
##    country      year population
##    <chr>       <dbl>      <dbl>
##  1 Afghanistan  1995   17586073
##  2 Afghanistan  1996   18415307
##  3 Afghanistan  1997   19021226
##  4 Afghanistan  1998   19496836
##  5 Afghanistan  1999   19987071
##  6 Afghanistan  2000   20595360
##  7 Afghanistan  2001   21347782
##  8 Afghanistan  2002   22202806
##  9 Afghanistan  2003   23116142
## 10 Afghanistan  2004   24018682
## # ℹ 4,050 more rows
…
3 Data Agregation

We want to calculate the min, max and increase of population for each
country. At first, the data is grouped for the category that should be
used for grouping. Then in the summarise() function,
the logic is described.

population %>%
  group_by(country) %>%
  summarise(min = min(population), max = max(population), increase = max - min, inc_percent = (max-min)/min*100)

## # A tibble: 219 × 5
##    country                  min      max increase inc_percent
##    <chr>                  <dbl>    <dbl>    <dbl>       <dbl>
##  1 Afghanistan         17586073 30551674 12965601       73.7 
##  2 Albania              3150143  3357858   207715        6.59
##  3 Algeria             29315463 39208194  9892731       33.7 
##  4 American Samoa         52874    59262     6388       12.1 
##  5 Andorra                63799    81877    18078       28.3 
##  6 Angola              12104952 21471618  9366666       77.4 
##  7 Anguilla                9807    14300     4493       45.8 
##  8 Antigua and Barbuda    68349    89985    21636       31.7 
##  9 Argentina           34833168 41446246  6613078       19.0 
## 10 Armenia              2963496  3223173   259677        8.76
## # ℹ 209 more rows
