Data Filtering: Exercise
…
2 Filtering

Filter for year 2015.

babynames_filt <- babynames %>%
  filter(year == 2015)
babynames_filt

## # A tibble: 33,098 × 5
##     year sex   name          n    prop
##    <dbl> <chr> <chr>     <int>   <dbl>
##  1  2015 F     Emma      20435 0.0105 
##  2  2015 F     Olivia    19669 0.0101 
##  3  2015 F     Sophia    17402 0.00895
##  4  2015 F     Ava       16361 0.00841
##  5  2015 F     Isabella  15594 0.00802
##  6  2015 F     Mia       14892 0.00766
##  7  2015 F     Abigail   12390 0.00637
##  8  2015 F     Emily     11780 0.00606
##  9  2015 F     Charlotte 11390 0.00586
## 10  2015 F     Harper    10291 0.00529
## # ℹ 33,088 more rows

Filter for all names that have a capital letter “B”. Help: take a
look at “str_detect()”.

library(stringr)
babynames_filt <- babynames %>%
  filter(str_detect(name, 'B'))
babynames_filt

## # A tibble: 78,281 × 5
##     year sex   name         n     prop
##    <dbl> <chr> <chr>    <int>    <dbl>
##  1  1880 F     Bertha    1320 0.0135  
##  2  1880 F     Bessie     796 0.00816 
##  3  1880 F     Blanche    427 0.00437 
##  4  1880 F     Belle      238 0.00244 
##  5  1880 F     Beulah     131 0.00134 
##  6  1880 F     Barbara    127 0.00130 
##  7  1880 F     Betty      117 0.00120 
##  8  1880 F     Bettie     113 0.00116 
##  9  1880 F     Beatrice    87 0.000891
## 10  1880 F     Birdie      85 0.000871
## # ℹ 78,271 more rows

Filter for male names.

babynames_filt <- babynames %>%
  filter(sex == 'M') %>%
  select(name)
babynames_filt

## # A tibble: 786,372 × 1
##    name   
##    <chr>  
##  1 John   
##  2 William
##  3 James  
##  4 Charles
##  5 George 
##  6 Frank  
##  7 Joseph 
##  8 Thomas 
##  9 Henry  
## 10 Robert 
## # ℹ 786,362 more rows

Take only names into account which have more than 100
observations.

babynames_filt <- babynames %>%
  filter(n > 100) %>%
  select(name)
babynames_filt

## # A tibble: 230,074 × 1
##    name     
##    <chr>    
##  1 Mary     
##  2 Anna     
##  3 Emma     
##  4 Elizabeth
##  5 Minnie   
##  6 Margaret 
##  7 Ida      
##  8 Alice    
##  9 Bertha   
## 10 Sarah    
## # ℹ 230,064 more rows
…
Keep only the columns “name” and “prop”

babynames_filt <- babynames %>%
  select(name, prop)
babynames_filt

## # A tibble: 1,924,665 × 2
##    name        prop
##    <chr>      <dbl>
##  1 Mary      0.0724
##  2 Anna      0.0267
##  3 Emma      0.0205
##  4 Elizabeth 0.0199
##  5 Minnie    0.0179
##  6 Margaret  0.0162
##  7 Ida       0.0151
##  8 Alice     0.0145
##  9 Bertha    0.0135
## 10 Sarah     0.0132
## # ℹ 1,924,655 more rows
…
