DataFiltering
…
## # A tibble: 2 × 1
##   clarity
##   <ord>  
## 1 VS2    
## 2 VS2

Filter with filter()

diamonds_filt <- diamonds %>% 
  filter(x > 9) %>%
  filter(cut %in% c('Ideal', 'Premium'))
diamonds_filt

## # A tibble: 24 × 10
##    carat cut     color clarity depth table price     x     y     z
##    <dbl> <ord>   <ord> <ord>   <dbl> <dbl> <int> <dbl> <dbl> <dbl>
##  1  3.01 Premium I     I1       62.7    58  8040  9.1   8.97  5.67
##  2  2.68 Premium G     I1       58.6    60  8419  9.11  9.07  5.33
##  3  3.01 Premium F     I1       62.2    56  9925  9.24  9.13  5.73
##  4  3.05 Premium E     I1       60.9    58 10453  9.26  9.25  5.66
##  5  2.72 Ideal   H     I1       59.6    55 11594  9.17  9.13  5.45
##  6  3.24 Premium H     I1       62.1    58 12300  9.44  9.4   5.85
##  7  3.22 Ideal   I     I1       62.6    55 12545  9.49  9.42  5.92
##  8  3.5  Ideal   H     I1       62.8    57 12587  9.65  9.59  6.03
##  9  2.75 Ideal   D     I1       60.9    57 13156  9.04  8.98  5.49
## 10  3    Premium G     I1       59.7    60 13203  9.42  9.26  5.58
## # ℹ 14 more rows
…
2.3 Filter columns

Filter for columns with select()

diamonds_filt <- diamonds %>%
  select(clarity, color) # Only clarity and color columns
diamonds_filt

## # A tibble: 53,940 × 2
##    clarity color
##    <ord>   <ord>
##  1 SI2     E    
##  2 SI1     E    
##  3 VS1     E    
##  4 VS2     I    
##  5 SI2     J    
##  6 VVS2    J    
##  7 VVS1    I    
##  8 SI1     H    
##  9 VS2     E    
## 10 VS1     H    
## # ℹ 53,930 more rows

diamonds_filt <- diamonds %>%
  select(-carat, -price) # All columns except carat and price
diamonds_filt

## # A tibble: 53,940 × 8
##    cut       color clarity depth table     x     y     z
##    <ord>     <ord> <ord>   <dbl> <dbl> <dbl> <dbl> <dbl>
##  1 Ideal     E     SI2      61.5    55  3.95  3.98  2.43
##  2 Premium   E     SI1      59.8    61  3.89  3.84  2.31
##  3 Good      E     VS1      56.9    65  4.05  4.07  2.31
##  4 Premium   I     VS2      62.4    58  4.2   4.23  2.63
##  5 Good      J     SI2      63.3    58  4.34  4.35  2.75
##  6 Very Good J     VVS2     62.8    57  3.94  3.96  2.48
##  7 Very Good I     VVS1     62.3    57  3.95  3.98  2.47
##  8 Very Good H     SI1      61.9    55  4.07  4.11  2.53
##  9 Fair      E     VS2      65.1    61  3.87  3.78  2.49
## 10 Very Good H     VS1      59.4    61  4     4.05  2.39
## # ℹ 53,930 more rows
